[Silence Cut]
Param0=-65
Param1=15
Param2=-65
Param3=400

[File Save]
Extension=ogg

[Delete]
Selection=0,1:34.389,-1

[Delete]
Selection=10.000,-0,-1

[Fade Out]
Selection=9.000,-0,-1

[File Save]
Extension=ogg