[Silence Cut]
Param0=-65
Param1=15
Param2=-65
Param3=400

[Delete]
Selection=0,01.264,-1

[Delete]
Selection=01:27.132,04:11.388,-1

[File Save]
Extension=ogg

[Delete]
Selection=0,53.034,-1

[Delete]
Selection=10.000,-0,-1

[Fade Out]
Selection=9.000,-0,-1

[File Save]
Extension=ogg